id;date_of_opening;opened_by;customer_id;account_number;login_id;login_password;email;phone;bank_account_type;cheque_book_issued;account_balance;balance_checked_on;minimum_balance;password_gets_expired;expiration_period_days;password_updated_on;remarks;account_status;multiple_session_allowed;project_name;project_code;requested_on;requested_by;account_holder_id;bank_branch_id;mobile_number_mapped_id
2;2019-07-25T02:49:35;Albania web-readiness;Namibia;Steel zero administration;Multi-channelled Licensed;grey Cambridgeshire;Bx2sGJ5ifuuY8r@[63.75.445.97];593481115181867;SAVING;true;24102;2019-07-24T23:33:52;68326;false;60999;2019-07-24T22:14:38;Games Regional Digitized;SUSPENDED;false;Georgia Industrial;connect Markets Chief;2019-07-24T19:46:43;National Awesome sky blue;1;10;4
3;2019-07-24T13:51:34;compress South Georgia and the South Sandwich Islands;compelling mission-critical;bifurcated scalable;Small;deliverables reinvent 24 hour;soLBQdeHCMugeHVSXZ.HlnR.EG7.bLtgtzhgR77tw8pGDGAtZlTXRPCJzjhodUpf_FUyyF7YX1MmkTG@[8.29.592.4];+267795600991;INSURANCE;true;32518;2019-07-24T18:08:46;72960;true;63755;2019-07-25T03:32:05;Mississippi embrace Developer;IN_USE;false;Poland;Small partnerships;2019-07-25T05:17:13;Dynamic;5;4;6
6;2019-07-24T10:48:20;Functionality;Moroccan Dirham;capability zero tolerance Computers;Analyst paradigms;encompassing;6@[133.6.75.vaoK;9947769;MUTUAL_FUND;false;53577;2019-07-24T14:32:02;9028;true;83530;2019-07-25T06:30:39;Bedfordshire;ACTIVE;true;Future-proofed deposit Sausages;disintermediate Cambridgeshire hacking;2019-07-24T17:54:42;bandwidth azure;6;9;7
9;2019-07-25T07:52:48;turn-key dedicated;Wisconsin;target Human withdrawal;dot-com payment Libyan Dinar;white sensor local;oykegPEuyR0fPygG3K4g4v_du0mp3gGrKcM1-H6gR3kHoNQVg4yTM@1AuH96NkEYD.FV4c5TpGlJyMZwTzdeysDmuhphs2bXY42aBFMdOKq.R.GNPBL4PPwspElKgtfcoHOe5ECeXiNTv4VqM88q0bOEci4Vaj2kK0gihcHThaMN4zbLq6kyH1-YhuNQCs3DbNCwH.OT;+670274;SECURITIES;false;30569;2019-07-25T00:53:09;19091;true;26847;2019-07-25T02:31:19;Pants Maryland;IN_USE;true;intuitive Open-architected system-worthy;program;2019-07-24T17:24:00;Sudanese Pound;4;6;3
